{"help": "https://ckandev.indiadataportal.com/sv/api/3/action/help_show?name=datastore_search", "success": true, "result": {"include_total": true, "limit": 5, "records_format": "objects", "resource_id": "cc32d3e2-7ea3-4b6b-94ab-85e57f6a0a3a", "total_estimation_threshold": null, "records": [{"_id":1,"id":0,"date":"2020-04-01","state_name":"Andaman And Nicobar Islands","state_code":"35","office_name":"Port Blair Dto","office_code":"AN1","type":"Motor Cab","category":"Transport","registrations":3.0},{"_id":2,"id":1,"date":"2020-04-01","state_name":"Andaman And Nicobar Islands","state_code":"35","office_name":"Port Blair Dto","office_code":"AN1","type":"Omni Bus","category":"Transport","registrations":1.0},{"_id":3,"id":2,"date":"2020-04-01","state_name":"Andaman And Nicobar Islands","state_code":"35","office_name":"Port Blair Dto","office_code":"AN1","type":"Maxi Cab","category":"Transport","registrations":1.0},{"_id":4,"id":3,"date":"2020-04-01","state_name":"Andaman And Nicobar Islands","state_code":"35","office_name":"Port Blair Dto","office_code":"AN1","type":"Goods Carrier","category":"Transport","registrations":27.0},{"_id":5,"id":4,"date":"2020-04-01","state_name":"Andaman And Nicobar Islands","state_code":"35","office_name":"Port Blair Dto","office_code":"AN1","type":"Motor Car","category":"Non Transport","registrations":12.0}], "fields": [{"id": "_id", "type": "int"}, {"id": "id", "type": "int4", "info": {"label": "index", "units": null, "unit_type": false, "formula": null, "unit_conversion": null, "original_derived": false, "visual_exclude": false}}, {"id": "date", "type": "date", "info": {"label": "Date", "units": "", "unit_type": true, "formula": "", "unit_conversion": "", "original_derived": true, "visual_exclude": true}}, {"id": "state_name", "type": "text", "info": {"label": "State Name", "units": "", "unit_type": true, "formula": "", "unit_conversion": "", "original_derived": true, "visual_exclude": true}}, {"id": "state_code", "type": "text", "info": {"label": "State Code", "units": "", "unit_type": true, "formula": "", "unit_conversion": "", "original_derived": true, "visual_exclude": true}}, {"id": "office_name", "type": "text", "info": {"label": "RTO Name", "units": "", "unit_type": true, "formula": "", "unit_conversion": "", "original_derived": true, "visual_exclude": true}}, {"id": "office_code", "type": "text", "info": {"label": "RTO Code", "units": "", "unit_type": true, "formula": "", "unit_conversion": "", "original_derived": true, "visual_exclude": true}}, {"id": "type", "type": "text"}, {"id": "category", "type": "text", "info": {"label": "Categorized By", "units": "", "unit_type": true, "formula": "", "unit_conversion": "", "original_derived": true, "visual_exclude": true}}, {"id": "registrations", "type": "numeric", "info": {"label": "Registrations", "units": "", "unit_type": true, "formula": "", "unit_conversion": "", "original_derived": true, "visual_exclude": true}}], "_links": {"start": "/api/action/datastore_search?resource_id=cc32d3e2-7ea3-4b6b-94ab-85e57f6a0a3a&limit=5", "next": "/api/action/datastore_search?resource_id=cc32d3e2-7ea3-4b6b-94ab-85e57f6a0a3a&limit=5&offset=5"}, "total": 857760, "total_was_estimated": false}}