{"help": "https://ckandev.indiadataportal.com/sv/api/3/action/help_show?name=datastore_search", "success": true, "result": {"include_total": true, "limit": 1, "records_format": "objects", "resource_id": "cc32d3e2-7ea3-4b6b-94ab-85e57f6a0a3a", "sort": "date desc", "total_estimation_threshold": null, "records": [{"_id":1097,"id":1096,"date":"2024-05-01","state_name":"Andhra Pradesh","state_code":"28","office_name":"Adoni Rto","office_code":"AP221","type":"Motor Cab","category":"Transport","registrations":3.0}], "fields": [{"id": "_id", "type": "int"}, {"id": "id", "type": "int4", "info": {"label": "index", "units": null, "unit_type": false, "formula": null, "unit_conversion": null, "original_derived": false, "visual_exclude": false}}, {"id": "date", "type": "date", "info": {"label": "Date", "units": "", "unit_type": true, "formula": "", "unit_conversion": "", "original_derived": true, "visual_exclude": true}}, {"id": "state_name", "type": "text", "info": {"label": "State Name", "units": "", "unit_type": true, "formula": "", "unit_conversion": "", "original_derived": true, "visual_exclude": true}}, {"id": "state_code", "type": "text", "info": {"label": "State Code", "units": "", "unit_type": true, "formula": "", "unit_conversion": "", "original_derived": true, "visual_exclude": true}}, {"id": "office_name", "type": "text", "info": {"label": "RTO Name", "units": "", "unit_type": true, "formula": "", "unit_conversion": "", "original_derived": true, "visual_exclude": true}}, {"id": "office_code", "type": "text", "info": {"label": "RTO Code", "units": "", "unit_type": true, "formula": "", "unit_conversion": "", "original_derived": true, "visual_exclude": true}}, {"id": "type", "type": "text"}, {"id": "category", "type": "text", "info": {"label": "Categorized By", "units": "", "unit_type": true, "formula": "", "unit_conversion": "", "original_derived": true, "visual_exclude": true}}, {"id": "registrations", "type": "numeric", "info": {"label": "Registrations", "units": "", "unit_type": true, "formula": "", "unit_conversion": "", "original_derived": true, "visual_exclude": true}}], "_links": {"start": "/api/action/datastore_search?resource_id=cc32d3e2-7ea3-4b6b-94ab-85e57f6a0a3a&limit=1&sort=date+desc", "next": "/api/action/datastore_search?resource_id=cc32d3e2-7ea3-4b6b-94ab-85e57f6a0a3a&limit=1&sort=date+desc&offset=1"}, "total": 857760, "total_was_estimated": false}}